<?xml version="1.0" encoding="UTF-8"?>
<CustomTab xmlns="http://soap.sforce.com/2006/04/metadata">
    <description>Display the Merged record Status</description>
    <label>MD Status</label>
    <mobileReady>false</mobileReady>
    <motif>Custom26: Flag</motif>
    <page>MD_AdvanceSetup</page>
</CustomTab>
